{
	"info": {
		"_postman_id": "72d48111-6264-4ce6-9de0-7b18f5836807",
		"name": "myShop",
		"schema": "https://schema.getpostman.com/json/collection/v2.1.0/collection.json",
		"_exporter_id": "24222241"
	},
	"item": [
		{
			"name": "USERS",
			"item": [
				{
					"name": "Register User",
					"request": {
						"method": "POST",
						"header": [],
						"body": {
							"mode": "raw",
							"raw": "{\r\n        \"firstName\":  \"admin\",\r\n        \"middleName\": \"m\",\r\n        \"lastName\":   \"admin\",\r\n        \"contacts\": {\r\n            \"mobileNum\":\"215\",\r\n            \"email\":\"admin@gmail.com\"\r\n        },\r\n        \"password\":   \"\",   \r\n        \"address\":{\r\n            \"province\":     \"Quezon\",\r\n            \"municipality\": \"Dolores\",\r\n            \"barangay\":     \"bagong Anyo\",\r\n            \"houseNum\":     \"01\",\r\n            \"street\":       \"Cauyan St\",\r\n            \"zipcode\":      \"4326\"\r\n           }\r\n        }",
							"options": {
								"raw": {
									"language": "json"
								}
							}
						},
						"url": {
							"raw": "http://localhost:8000/user/register",
							"protocol": "http",
							"host": [
								"localhost"
							],
							"port": "8000",
							"path": [
								"user",
								"register"
							]
						}
					},
					"response": []
				},
				{
					"name": "LOGIN",
					"request": {
						"method": "POST",
						"header": [],
						"body": {
							"mode": "raw",
							"raw": "{\r\n    \"email\":\"thomas@gmail.com\",\r\n    \"password\":\"admin1234\"\r\n}",
							"options": {
								"raw": {
									"language": "json"
								}
							}
						},
						"url": {
							"raw": "http://localhost:8000/user/login",
							"protocol": "http",
							"host": [
								"localhost"
							],
							"port": "8000",
							"path": [
								"user",
								"login"
							]
						}
					},
					"response": [
						{
							"name": "LOGIN",
							"originalRequest": {
								"method": "POST",
								"header": [],
								"body": {
									"mode": "raw",
									"raw": "{\r\n    \"email\":\"ISLA@gmail.com\",\r\n    \"password\":\"administrator\"\r\n}",
									"options": {
										"raw": {
											"language": "json"
										}
									}
								},
								"url": {
									"raw": "http://localhost:8000/user/login",
									"protocol": "http",
									"host": [
										"localhost"
									],
									"port": "8000",
									"path": [
										"user",
										"login"
									]
								}
							},
							"status": "OK",
							"code": 200,
							"_postman_previewlanguage": "json",
							"header": [
								{
									"key": "X-Powered-By",
									"value": "Express"
								},
								{
									"key": "Access-Control-Allow-Origin",
									"value": "*"
								},
								{
									"key": "Content-Type",
									"value": "application/json; charset=utf-8"
								},
								{
									"key": "Content-Length",
									"value": "186"
								},
								{
									"key": "ETag",
									"value": "W/\"ba-JWp1SYgoZe8l/7ZaR1I4Q+EXoeY\""
								},
								{
									"key": "Date",
									"value": "Thu, 08 Dec 2022 02:18:59 GMT"
								},
								{
									"key": "Connection",
									"value": "keep-alive"
								},
								{
									"key": "Keep-Alive",
									"value": "timeout=5"
								}
							],
							"cookie": [],
							"body": "{\n    \"accessToken\": \"eyJhbGciOiJIUzI1NiIsInR5cCI6IkpXVCJ9.eyJpZCI6IjYzOTBiOTFhMTZmYmJmZGVkMTdkN2IzYyIsImlzQWRtaW4iOnRydWUsImlhdCI6MTY3MDQ2NTkzOX0.928B3a_ckXBRW-7AC-YDoub4jSO5a8_JQUxBbR-CJIc\"\n}"
						}
					]
				},
				{
					"name": "Change User Role",
					"request": {
						"auth": {
							"type": "bearer",
							"bearer": [
								{
									"key": "token",
									"value": "eyJhbGciOiJIUzI1NiIsInR5cCI6IkpXVCJ9.eyJpZCI6IjYzOTA1MTEyODVlZDdmZDM3OWNhMmIwNiIsImlzQWRtaW4iOiJmYWxzZSIsImlhdCI6MTY3MDQwMjM4Nn0.WyUL_NXHQrLsAnwdmkqDLEr_vr9tG1ZFC7EBckA5LjU",
									"type": "string"
								}
							]
						},
						"method": "PATCH",
						"header": [],
						"url": {
							"raw": "http://localhost:8000/user/adminize/6390511285ed7fd379ca2b06",
							"protocol": "http",
							"host": [
								"localhost"
							],
							"port": "8000",
							"path": [
								"user",
								"adminize",
								"6390511285ed7fd379ca2b06"
							]
						}
					},
					"response": []
				},
				{
					"name": "GETALL USERS",
					"request": {
						"auth": {
							"type": "bearer",
							"bearer": [
								{
									"key": "token",
									"value": "eyJhbGciOiJIUzI1NiIsInR5cCI6IkpXVCJ9.eyJpZCI6IjYzOTBiOTFhMTZmYmJmZGVkMTdkN2IzYyIsImlzQWRtaW4iOnRydWUsImlhdCI6MTY3MDQ2NTkzOX0.928B3a_ckXBRW-7AC-YDoub4jSO5a8_JQUxBbR-CJIc",
									"type": "string"
								}
							]
						},
						"method": "GET",
						"header": [],
						"url": {
							"raw": "http://localhost:8000/user",
							"protocol": "http",
							"host": [
								"localhost"
							],
							"port": "8000",
							"path": [
								"user"
							]
						}
					},
					"response": []
				},
				{
					"name": "VIEW PROFILE",
					"request": {
						"method": "GET",
						"header": []
					},
					"response": []
				},
				{
					"name": "VIEW MY CART",
					"request": {
						"auth": {
							"type": "bearer",
							"bearer": [
								{
									"key": "token",
									"value": "eyJhbGciOiJIUzI1NiIsInR5cCI6IkpXVCJ9.eyJpZCI6IjYzOTYwMzY5ZDNjMDZiOTllZGNkNGZmYSIsImlzQWRtaW4iOmZhbHNlLCJpYXQiOjE2NzA3NzcxNzJ9.mOtQWcp3dPrFjqt3T24bqJKeDIEqv0HuUMjKT5N-Hwg",
									"type": "string"
								}
							]
						},
						"method": "GET",
						"header": [],
						"url": {
							"raw": "http://localhost:8000/user/mycart",
							"protocol": "http",
							"host": [
								"localhost"
							],
							"port": "8000",
							"path": [
								"user",
								"mycart"
							]
						}
					},
					"response": []
				}
			]
		},
		{
			"name": "PRODUCTS",
			"item": [
				{
					"name": "GET AVAILABLE PRODUCTS",
					"request": {
						"method": "GET",
						"header": [],
						"url": {
							"raw": "http://localhost:8000/products/",
							"protocol": "http",
							"host": [
								"localhost"
							],
							"port": "8000",
							"path": [
								"products",
								""
							]
						}
					},
					"response": []
				},
				{
					"name": "ADD PRODUCT",
					"request": {
						"auth": {
							"type": "bearer",
							"bearer": [
								{
									"key": "token",
									"value": "eyJhbGciOiJIUzI1NiIsInR5cCI6IkpXVCJ9.eyJpZCI6IjYzOTBiOTFhMTZmYmJmZGVkMTdkN2IzYyIsImlzQWRtaW4iOnRydWUsImlhdCI6MTY3MDQyOTg5M30.agfe8vkbj8t4a2PjYRd-NQKd2IoVzN_oSOP-zSPta3g",
									"type": "string"
								}
							]
						},
						"method": "POST",
						"header": [],
						"body": {
							"mode": "raw",
							"raw": "{\r\n    \"prodName\": \"Sparkle\",\r\n        \"price\": 20,\r\n        \"description\": \"Crystal Clear\",\r\n        \"specs\":{\r\n            \"dimensions\":\"40mmx30mmx10mm\",\r\n            \"color\": [\"green\",\"gray\"],\r\n            \"size\": \"500ml\"\r\n        },\r\n        \"stocks\":30\r\n}",
							"options": {
								"raw": {
									"language": "json"
								}
							}
						},
						"url": {
							"raw": "http://localhost:8000/products/addproduct",
							"protocol": "http",
							"host": [
								"localhost"
							],
							"port": "8000",
							"path": [
								"products",
								"addproduct"
							]
						}
					},
					"response": []
				},
				{
					"name": "UPDATE PRODUCT",
					"request": {
						"auth": {
							"type": "bearer",
							"bearer": [
								{
									"key": "token",
									"value": "eyJhbGciOiJIUzI1NiIsInR5cCI6IkpXVCJ9.eyJpZCI6IjYzOTYwMzI4ZDNjMDZiOTllZGNkNGZmNCIsImlzQWRtaW4iOnRydWUsImlhdCI6MTY3MDc3NjQxMH0.bbOaK2wXW5LDwX2I6K81uGgv06ust49WC2Rx5t0NSOU",
									"type": "string"
								}
							]
						},
						"method": "PUT",
						"header": [],
						"body": {
							"mode": "raw",
							"raw": "{\r\n    \"prodName\": \"STING\",\r\n        \"price\": 40,\r\n        \"description\": \"HINDI COBRA\",\r\n        \"specs\":{\r\n            \"dimensions\":\"40mmx30mmx10mm\",\r\n            \"color\": [\"green\",\"RED\"],\r\n            \"size\": \"500ml\"\r\n        },\r\n        \"stocks\":150\r\n}",
							"options": {
								"raw": {
									"language": "json"
								}
							}
						},
						"url": {
							"raw": "http://localhost:8000/products/updateproduct/6396071bd3c06b99edcd5005",
							"protocol": "http",
							"host": [
								"localhost"
							],
							"port": "8000",
							"path": [
								"products",
								"updateproduct",
								"6396071bd3c06b99edcd5005"
							]
						}
					},
					"response": []
				},
				{
					"name": "Find Product by ID",
					"request": {
						"method": "GET",
						"header": [],
						"url": {
							"raw": "http://localhost:8000/products/6395a8d60cccd8a4f9567425",
							"protocol": "http",
							"host": [
								"localhost"
							],
							"port": "8000",
							"path": [
								"products",
								"6395a8d60cccd8a4f9567425"
							]
						}
					},
					"response": []
				},
				{
					"name": "PUT PRODUCT ON SALE",
					"request": {
						"auth": {
							"type": "bearer",
							"bearer": [
								{
									"key": "token",
									"value": "eyJhbGciOiJIUzI1NiIsInR5cCI6IkpXVCJ9.eyJpZCI6IjYzOTBiOTFhMTZmYmJmZGVkMTdkN2IzYyIsImlzQWRtaW4iOnRydWUsImlhdCI6MTY3MDQ2NTkzOX0.928B3a_ckXBRW-7AC-YDoub4jSO5a8_JQUxBbR-CJIc",
									"type": "string"
								}
							]
						},
						"method": "PATCH",
						"header": [],
						"url": {
							"raw": "http://localhost:8000/products/putonsale?productId=6390bd2618db67bffe9f0820&discount=20",
							"protocol": "http",
							"host": [
								"localhost"
							],
							"port": "8000",
							"path": [
								"products",
								"putonsale"
							],
							"query": [
								{
									"key": "productId",
									"value": "6390bd2618db67bffe9f0820"
								},
								{
									"key": "discount",
									"value": "20"
								}
							]
						}
					},
					"response": []
				},
				{
					"name": "ARCHIVE PRODUCT",
					"request": {
						"auth": {
							"type": "bearer",
							"bearer": [
								{
									"key": "token",
									"value": "eyJhbGciOiJIUzI1NiIsInR5cCI6IkpXVCJ9.eyJpZCI6IjYzOTBiOTFhMTZmYmJmZGVkMTdkN2IzYyIsImlzQWRtaW4iOnRydWUsImlhdCI6MTY3MDQ2NTkzOX0.928B3a_ckXBRW-7AC-YDoub4jSO5a8_JQUxBbR-CJIc",
									"type": "string"
								}
							]
						},
						"method": "PATCH",
						"header": [],
						"url": {
							"raw": "http://localhost:8000/products/archiveproduct/639606c7d3c06b99edcd5001",
							"protocol": "http",
							"host": [
								"localhost"
							],
							"port": "8000",
							"path": [
								"products",
								"archiveproduct",
								"639606c7d3c06b99edcd5001"
							]
						}
					},
					"response": []
				},
				{
					"name": "GET ALL PRODUCTS",
					"request": {
						"auth": {
							"type": "bearer",
							"bearer": [
								{
									"key": "token",
									"value": "eyJhbGciOiJIUzI1NiIsInR5cCI6IkpXVCJ9.eyJpZCI6IjYzOTBiOTFhMTZmYmJmZGVkMTdkN2IzYyIsImlzQWRtaW4iOnRydWUsImlhdCI6MTY3MDQ2NTkzOX0.928B3a_ckXBRW-7AC-YDoub4jSO5a8_JQUxBbR-CJIc",
									"type": "string"
								}
							]
						},
						"method": "GET",
						"header": [],
						"url": {
							"raw": "http://localhost:8000/products/allproducts",
							"protocol": "http",
							"host": [
								"localhost"
							],
							"port": "8000",
							"path": [
								"products",
								"allproducts"
							]
						}
					},
					"response": []
				},
				{
					"name": "ADD TO CART",
					"request": {
						"auth": {
							"type": "bearer",
							"bearer": [
								{
									"key": "token",
									"value": "eyJhbGciOiJIUzI1NiIsInR5cCI6IkpXVCJ9.eyJpZCI6IjYzOTQyYmVhM2RkM2Y4ZjI5MzFlNDM1NSIsImlzQWRtaW4iOmZhbHNlLCJpYXQiOjE2NzA2NTQ5NjB9.1XLkPttIe2-ArES0pRz_P--3uHhmI7dhNsiy-ED8dwI",
									"type": "string"
								}
							]
						},
						"method": "PATCH",
						"header": [],
						"body": {
							"mode": "raw",
							"raw": "{\r\n    \"prodId\" : \"6395a8d60cccd8a4f9567421\",\r\n    \"quantity\" : 15\r\n}\r\n",
							"options": {
								"raw": {
									"language": "json"
								}
							}
						},
						"url": {
							"raw": "http://localhost:8000/products/addtocart/",
							"protocol": "http",
							"host": [
								"localhost"
							],
							"port": "8000",
							"path": [
								"products",
								"addtocart",
								""
							]
						}
					},
					"response": []
				}
			]
		},
		{
			"name": "REPORTS",
			"item": [
				{
					"name": "SALES REPORT",
					"request": {
						"method": "GET",
						"header": [],
						"url": {
							"raw": "http://localhost:8000/reports?startDate=January&endDate=March",
							"protocol": "http",
							"host": [
								"localhost"
							],
							"port": "8000",
							"path": [
								"reports"
							],
							"query": [
								{
									"key": "startDate",
									"value": "January"
								},
								{
									"key": "endDate",
									"value": "March"
								}
							]
						}
					},
					"response": []
				}
			]
		},
		{
			"name": "ORDERS",
			"item": [
				{
					"name": "APPROVE ORDERS",
					"request": {
						"auth": {
							"type": "bearer",
							"bearer": [
								{
									"key": "token",
									"value": "eyJhbGciOiJIUzI1NiIsInR5cCI6IkpXVCJ9.eyJpZCI6IjYzOTBiOTFhMTZmYmJmZGVkMTdkN2IzYyIsImlzQWRtaW4iOnRydWUsImlhdCI6MTY3MDQ2NTkzOX0.928B3a_ckXBRW-7AC-YDoub4jSO5a8_JQUxBbR-CJIc",
									"type": "string"
								}
							]
						},
						"method": "PATCH",
						"header": [],
						"body": {
							"mode": "raw",
							"raw": "",
							"options": {
								"raw": {
									"language": "json"
								}
							}
						},
						"url": {
							"raw": "http://localhost:8000/order/approvecartorders?orderid=639494e0a7288b56e7fb1547&status=approved",
							"protocol": "http",
							"host": [
								"localhost"
							],
							"port": "8000",
							"path": [
								"order",
								"approvecartorders"
							],
							"query": [
								{
									"key": "orderid",
									"value": "639494e0a7288b56e7fb1547"
								},
								{
									"key": "status",
									"value": "approved"
								}
							]
						}
					},
					"response": []
				},
				{
					"name": "GET ALL ORDERS",
					"request": {
						"auth": {
							"type": "bearer",
							"bearer": [
								{
									"key": "token",
									"value": "eyJhbGciOiJIUzI1NiIsInR5cCI6IkpXVCJ9.eyJpZCI6IjYzOTYwMzI4ZDNjMDZiOTllZGNkNGZmNCIsImlzQWRtaW4iOnRydWUsImlhdCI6MTY3MDc3ODExM30.hIE8XJZcn5GXznT12qriiqKzXN82rK0qwgesPk0vMs4",
									"type": "string"
								}
							]
						},
						"method": "GET",
						"header": [],
						"url": {
							"raw": "http://localhost:8000/order",
							"protocol": "http",
							"host": [
								"localhost"
							],
							"port": "8000",
							"path": [
								"order"
							]
						}
					},
					"response": []
				},
				{
					"name": "GET FILTERED ORDERS",
					"request": {
						"auth": {
							"type": "bearer",
							"bearer": [
								{
									"key": "token",
									"value": "eyJhbGciOiJIUzI1NiIsInR5cCI6IkpXVCJ9.eyJpZCI6IjYzOTBiOTFhMTZmYmJmZGVkMTdkN2IzYyIsImlzQWRtaW4iOnRydWUsImlhdCI6MTY3MDQ2NTkzOX0.928B3a_ckXBRW-7AC-YDoub4jSO5a8_JQUxBbR-CJIc",
									"type": "string"
								}
							]
						},
						"method": "GET",
						"header": [],
						"url": {
							"raw": "http://localhost:8000/order/filterorder?status=complete",
							"protocol": "http",
							"host": [
								"localhost"
							],
							"port": "8000",
							"path": [
								"order",
								"filterorder"
							],
							"query": [
								{
									"key": "status",
									"value": "complete"
								}
							]
						}
					},
					"response": []
				},
				{
					"name": "PLACE ORDER SINGLE PRODUCT",
					"request": {
						"method": "POST",
						"header": [],
						"body": {
							"mode": "raw",
							"raw": "{\r\n    \"productId\" : \"63960702d3c06b99edcd5003\",\r\n    \"quantity\" : 5\r\n\r\n}",
							"options": {
								"raw": {
									"language": "json"
								}
							}
						},
						"url": {
							"raw": "http://localhost:8000/order",
							"protocol": "http",
							"host": [
								"localhost"
							],
							"port": "8000",
							"path": [
								"order"
							]
						}
					},
					"response": []
				},
				{
					"name": "SINGLE ORDER APPROVE",
					"request": {
						"auth": {
							"type": "bearer",
							"bearer": [
								{
									"key": "token",
									"value": "eyJhbGciOiJIUzI1NiIsInR5cCI6IkpXVCJ9.eyJpZCI6IjYzOTY5ODM1NzQ2ZDA1OTFhMzczYTNmYiIsImlzQWRtaW4iOnRydWUsImlhdCI6MTY3MDgxNjAyN30.xCCixGwLui2fR0sL4ilVaM3qjEfmLIQlf0B9_3R6-sA",
									"type": "string"
								}
							]
						},
						"method": "PATCH",
						"header": [],
						"body": {
							"mode": "raw",
							"raw": "{\r\n    \"orderId\": \"6396a4146bc6cd23f94dfa0a\"\r\n}",
							"options": {
								"raw": {
									"language": "json"
								}
							}
						},
						"url": {
							"raw": "http://localhost:8000/order/singleorder/approve",
							"protocol": "http",
							"host": [
								"localhost"
							],
							"port": "8000",
							"path": [
								"order",
								"singleorder",
								"approve"
							]
						}
					},
					"response": []
				},
				{
					"name": "PLACE ORDER AND EMPTY CART",
					"request": {
						"auth": {
							"type": "bearer",
							"bearer": [
								{
									"key": "token",
									"value": "eyJhbGciOiJIUzI1NiIsInR5cCI6IkpXVCJ9.eyJpZCI6IjYzOTYwMzY5ZDNjMDZiOTllZGNkNGZmYSIsImlzQWRtaW4iOmZhbHNlLCJpYXQiOjE2NzA3NzcxNzJ9.mOtQWcp3dPrFjqt3T24bqJKeDIEqv0HuUMjKT5N-Hwg",
									"type": "string"
								}
							]
						},
						"method": "POST",
						"header": [],
						"url": {
							"raw": "http://localhost:8000/order/placeorder",
							"protocol": "http",
							"host": [
								"localhost"
							],
							"port": "8000",
							"path": [
								"order",
								"placeorder"
							]
						}
					},
					"response": []
				}
			]
		}
	]
}